lab4/counter_updown_4bit_loadable/sim/transcript
# Compile of counter_updown_loadable.v was successful.
# Compile of tb_counter_updown_loadable.v was successful.
# 2 compiles, 0 failed with no errors.
vsim work.tb_counter_updown_4bit_loadable
# vsim work.tb_counter_updown_4bit_loadable 
# Start time: 23:09:52 on Oct 16,2020
# Loading work.tb_counter_updown_4bit_loadable
# Loading work.counter_updown_4bit_loadable
add wave -position insertpoint sim:/tb_counter_updown_4bit_loadable/*
run -all
# clock=0 reset=0 load=x control=1 input_data=0000 count=xxxx
# clock=1 reset=0 load=x control=1 input_data=0000 count=xxxx
# clock=0 reset=0 load=x control=1 input_data=0000 count=xxxx
# clock=1 reset=0 load=x control=1 input_data=0000 count=xxxx
# clock=0 reset=0 load=x control=1 input_data=0000 count=xxxx
# clock=1 reset=0 load=x control=1 input_data=0000 count=xxxx
# clock=0 reset=0 load=1 control=1 input_data=0000 count=xxxx
# clock=1 reset=0 load=1 control=1 input_data=0000 count=0000
# clock=0 reset=1 load=0 control=1 input_data=0000 count=0000
# clock=1 reset=0 load=0 control=1 input_data=0000 count=0001
# clock=0 reset=0 load=0 control=0 input_data=0000 count=0001
# clock=1 reset=0 load=0 control=0 input_data=0000 count=0000
# clock=0 reset=0 load=0 control=0 input_data=0000 count=0000
# clock=1 reset=0 load=0 control=0 input_data=0000 count=1111
# clock=0 reset=0 load=0 control=0 input_data=0000 count=1111
# clock=1 reset=0 load=0 control=0 input_data=0000 count=1110
# clock=0 reset=0 load=0 control=0 input_data=0000 count=1110
# clock=1 reset=0 load=0 control=0 input_data=0000 count=1101
# clock=0 reset=0 load=0 control=0 input_data=0000 count=1101
# clock=1 reset=0 load=0 control=0 input_data=0000 count=1100
# clock=0 reset=1 load=0 control=0 input_data=0000 count=1100
# clock=1 reset=0 load=0 control=0 input_data=0000 count=1011
# clock=0 reset=0 load=0 control=1 input_data=0000 count=1011
# clock=1 reset=0 load=0 control=1 input_data=0000 count=1100
# clock=0 reset=0 load=0 control=1 input_data=0000 count=1100
# clock=1 reset=0 load=0 control=1 input_data=0000 count=1101
# clock=0 reset=0 load=0 control=1 input_data=0000 count=1101
# clock=1 reset=0 load=0 control=1 input_data=0000 count=1110
# clock=0 reset=0 load=0 control=1 input_data=0000 count=1110
# clock=1 reset=0 load=0 control=1 input_data=0000 count=1111
# clock=0 reset=0 load=0 control=1 input_data=0000 count=1111
# clock=1 reset=0 load=0 control=1 input_data=0000 count=0000
# clock=0 reset=1 load=0 control=1 input_data=0001 count=0000
# clock=1 reset=0 load=0 control=1 input_data=0001 count=0001
# clock=0 reset=0 load=0 control=0 input_data=0001 count=0001
# clock=1 reset=0 load=0 control=0 input_data=0001 count=0000
# clock=0 reset=0 load=0 control=0 input_data=0001 count=0000
# clock=1 reset=0 load=0 control=0 input_data=0001 count=1111
# clock=0 reset=0 load=0 control=0 input_data=0001 count=1111
# clock=1 reset=0 load=0 control=0 input_data=0001 count=1110
# clock=0 reset=0 load=0 control=0 input_data=0001 count=1110
# clock=1 reset=0 load=0 control=0 input_data=0001 count=1101
# clock=0 reset=0 load=0 control=0 input_data=0001 count=1101
# clock=1 reset=0 load=0 control=0 input_data=0001 count=1100
# clock=0 reset=1 load=0 control=0 input_data=0001 count=1100
# clock=1 reset=0 load=0 control=0 input_data=0001 count=1011
# clock=0 reset=0 load=0 control=1 input_data=0001 count=1011
# clock=1 reset=0 load=0 control=1 input_data=0001 count=1100
# clock=0 reset=0 load=0 control=1 input_data=0001 count=1100
# clock=1 reset=0 load=0 control=1 input_data=0001 count=1101
# clock=0 reset=0 load=0 control=1 input_data=0001 count=1101
# clock=1 reset=0 load=0 control=1 input_data=0001 count=1110
# clock=0 reset=0 load=0 control=1 input_data=0001 count=1110
# clock=1 reset=0 load=0 control=1 input_data=0001 count=1111
# clock=0 reset=0 load=0 control=1 input_data=0001 count=1111
# clock=1 reset=0 load=0 control=1 input_data=0001 count=0000
# clock=0 reset=1 load=0 control=1 input_data=0010 count=0000
# clock=1 reset=0 load=0 control=1 input_data=0010 count=0001
# clock=0 reset=0 load=0 control=0 input_data=0010 count=0001
# clock=1 reset=0 load=0 control=0 input_data=0010 count=0000
# clock=0 reset=0 load=0 control=0 input_data=0010 count=0000
# clock=1 reset=0 load=0 control=0 input_data=0010 count=1111
# clock=0 reset=0 load=0 control=0 input_data=0010 count=1111
# clock=1 reset=0 load=0 control=0 input_data=0010 count=1110
# clock=0 reset=0 load=0 control=0 input_data=0010 count=1110
# clock=1 reset=0 load=0 control=0 input_data=0010 count=1101
# clock=0 reset=0 load=0 control=0 input_data=0010 count=1101
# clock=1 reset=0 load=0 control=0 input_data=0010 count=1100
# clock=0 reset=1 load=0 control=0 input_data=0010 count=1100
# clock=1 reset=0 load=0 control=0 input_data=0010 count=1011
# clock=0 reset=0 load=0 control=1 input_data=0010 count=1011
# clock=1 reset=0 load=0 control=1 input_data=0010 count=1100
# clock=0 reset=0 load=0 control=1 input_data=0010 count=1100
# clock=1 reset=0 load=0 control=1 input_data=0010 count=1101
# clock=0 reset=0 load=0 control=1 input_data=0010 count=1101
# clock=1 reset=0 load=0 control=1 input_data=0010 count=1110
# clock=0 reset=0 load=0 control=1 input_data=0010 count=1110
# clock=1 reset=0 load=0 control=1 input_data=0010 count=1111
# clock=0 reset=0 load=0 control=1 input_data=0010 count=1111
# clock=1 reset=0 load=0 control=1 input_data=0010 count=0000
# clock=0 reset=1 load=0 control=1 input_data=0011 count=0000
# clock=1 reset=0 load=0 control=1 input_data=0011 count=0001
# clock=0 reset=0 load=0 control=0 input_data=0011 count=0001
# clock=1 reset=0 load=0 control=0 input_data=0011 count=0000
# clock=0 reset=0 load=0 control=0 input_data=0011 count=0000
# clock=1 reset=0 load=0 control=0 input_data=0011 count=1111
# clock=0 reset=0 load=0 control=0 input_data=0011 count=1111
# clock=1 reset=0 load=0 control=0 input_data=0011 count=1110
# clock=0 reset=0 load=0 control=0 input_data=0011 count=1110
# clock=1 reset=0 load=0 control=0 input_data=0011 count=1101
# clock=0 reset=0 load=0 control=0 input_data=0011 count=1101
# clock=1 reset=0 load=0 control=0 input_data=0011 count=1100
# clock=0 reset=1 load=0 control=0 input_data=0011 count=1100
# clock=1 reset=0 load=0 control=0 input_data=0011 count=1011
# clock=0 reset=0 load=0 control=1 input_data=0011 count=1011
# clock=1 reset=0 load=0 control=1 input_data=0011 count=1100
# clock=0 reset=0 load=0 control=1 input_data=0011 count=1100
# clock=1 reset=0 load=0 control=1 input_data=0011 count=1101
# clock=0 reset=0 load=0 control=1 input_data=0011 count=1101
# clock=1 reset=0 load=0 control=1 input_data=0011 count=1110
# clock=0 reset=0 load=0 control=1 input_data=0011 count=1110
# clock=1 reset=0 load=0 control=1 input_data=0011 count=1111
# clock=0 reset=0 load=0 control=1 input_data=0011 count=1111
# clock=1 reset=0 load=0 control=1 input_data=0011 count=0000
# clock=0 reset=1 load=0 control=1 input_data=0100 count=0000
# clock=1 reset=0 load=0 control=1 input_data=0100 count=0001
# clock=0 reset=0 load=0 control=0 input_data=0100 count=0001
# clock=1 reset=0 load=0 control=0 input_data=0100 count=0000
# clock=0 reset=0 load=0 control=0 input_data=0100 count=0000
# clock=1 reset=0 load=0 control=0 input_data=0100 count=1111
# clock=0 reset=0 load=0 control=0 input_data=0100 count=1111
# clock=1 reset=0 load=0 control=0 input_data=0100 count=1110
# clock=0 reset=0 load=0 control=0 input_data=0100 count=1110
# clock=1 reset=0 load=0 control=0 input_data=0100 count=1101
# clock=0 reset=0 load=0 control=0 input_data=0100 count=1101
# clock=1 reset=0 load=0 control=0 input_data=0100 count=1100
# clock=0 reset=1 load=0 control=0 input_data=0100 count=1100
# clock=1 reset=0 load=0 control=0 input_data=0100 count=1011
# clock=0 reset=0 load=0 control=1 input_data=0100 count=1011
# clock=1 reset=0 load=0 control=1 input_data=0100 count=1100
# clock=0 reset=0 load=0 control=1 input_data=0100 count=1100
# clock=1 reset=0 load=0 control=1 input_data=0100 count=1101
# clock=0 reset=0 load=0 control=1 input_data=0100 count=1101
# clock=1 reset=0 load=0 control=1 input_data=0100 count=1110
# clock=0 reset=0 load=0 control=1 input_data=0100 count=1110
# clock=1 reset=0 load=0 control=1 input_data=0100 count=1111
# clock=0 reset=0 load=0 control=1 input_data=0100 count=1111
# clock=1 reset=0 load=0 control=1 input_data=0100 count=0000
# clock=0 reset=1 load=0 control=1 input_data=0101 count=0000
# clock=1 reset=0 load=0 control=1 input_data=0101 count=0001
# clock=0 reset=0 load=0 control=0 input_data=0101 count=0001
# clock=1 reset=0 load=0 control=0 input_data=0101 count=0000
# clock=0 reset=0 load=0 control=0 input_data=0101 count=0000
# clock=1 reset=0 load=0 control=0 input_data=0101 count=1111
# clock=0 reset=0 load=0 control=0 input_data=0101 count=1111
# clock=1 reset=0 load=0 control=0 input_data=0101 count=1110
# clock=0 reset=0 load=0 control=0 input_data=0101 count=1110
# clock=1 reset=0 load=0 control=0 input_data=0101 count=1101
# clock=0 reset=0 load=0 control=0 input_data=0101 count=1101
# clock=1 reset=0 load=0 control=0 input_data=0101 count=1100
# clock=0 reset=1 load=0 control=0 input_data=0101 count=1100
# clock=1 reset=0 load=0 control=0 input_data=0101 count=1011
# clock=0 reset=0 load=0 control=1 input_data=0101 count=1011
# clock=1 reset=0 load=0 control=1 input_data=0101 count=1100
# clock=0 reset=0 load=0 control=1 input_data=0101 count=1100
# clock=1 reset=0 load=0 control=1 input_data=0101 count=1101
# clock=0 reset=0 load=0 control=1 input_data=0101 count=1101
# clock=1 reset=0 load=0 control=1 input_data=0101 count=1110
# clock=0 reset=0 load=0 control=1 input_data=0101 count=1110
# clock=1 reset=0 load=0 control=1 input_data=0101 count=1111
# clock=0 reset=0 load=0 control=1 input_data=0101 count=1111
# clock=1 reset=0 load=0 control=1 input_data=0101 count=0000
# clock=0 reset=1 load=0 control=1 input_data=0110 count=0000
# clock=1 reset=0 load=0 control=1 input_data=0110 count=0001
# clock=0 reset=0 load=0 control=0 input_data=0110 count=0001
# clock=1 reset=0 load=0 control=0 input_data=0110 count=0000
# clock=0 reset=0 load=0 control=0 input_data=0110 count=0000
# clock=1 reset=0 load=0 control=0 input_data=0110 count=1111
# clock=0 reset=0 load=0 control=0 input_data=0110 count=1111
# clock=1 reset=0 load=0 control=0 input_data=0110 count=1110
# clock=0 reset=0 load=0 control=0 input_data=0110 count=1110
# clock=1 reset=0 load=0 control=0 input_data=0110 count=1101
# clock=0 reset=0 load=0 control=0 input_data=0110 count=1101
# clock=1 reset=0 load=0 control=0 input_data=0110 count=1100
# clock=0 reset=1 load=0 control=0 input_data=0110 count=1100
# clock=1 reset=0 load=0 control=0 input_data=0110 count=1011
# clock=0 reset=0 load=0 control=1 input_data=0110 count=1011
# clock=1 reset=0 load=0 control=1 input_data=0110 count=1100
# clock=0 reset=0 load=0 control=1 input_data=0110 count=1100
# clock=1 reset=0 load=0 control=1 input_data=0110 count=1101
# clock=0 reset=0 load=0 control=1 input_data=0110 count=1101
# clock=1 reset=0 load=0 control=1 input_data=0110 count=1110
# clock=0 reset=0 load=0 control=1 input_data=0110 count=1110
# clock=1 reset=0 load=0 control=1 input_data=0110 count=1111
# clock=0 reset=0 load=0 control=1 input_data=0110 count=1111
# clock=1 reset=0 load=0 control=1 input_data=0110 count=0000
# clock=0 reset=1 load=0 control=1 input_data=0111 count=0000
# clock=1 reset=0 load=0 control=1 input_data=0111 count=0001
# clock=0 reset=0 load=0 control=0 input_data=0111 count=0001
# clock=1 reset=0 load=0 control=0 input_data=0111 count=0000
# clock=0 reset=0 load=0 control=0 input_data=0111 count=0000
# clock=1 reset=0 load=0 control=0 input_data=0111 count=1111
# clock=0 reset=0 load=0 control=0 input_data=0111 count=1111
# clock=1 reset=0 load=0 control=0 input_data=0111 count=1110
# clock=0 reset=0 load=0 control=0 input_data=0111 count=1110
# clock=1 reset=0 load=0 control=0 input_data=0111 count=1101
# clock=0 reset=0 load=0 control=0 input_data=0111 count=1101
# clock=1 reset=0 load=0 control=0 input_data=0111 count=1100
# clock=0 reset=1 load=0 control=0 input_data=0111 count=1100
# clock=1 reset=0 load=0 control=0 input_data=0111 count=1011
# clock=0 reset=0 load=0 control=1 input_data=0111 count=1011
# clock=1 reset=0 load=0 control=1 input_data=0111 count=1100
# clock=0 reset=0 load=0 control=1 input_data=0111 count=1100
# clock=1 reset=0 load=0 control=1 input_data=0111 count=1101
# clock=0 reset=0 load=0 control=1 input_data=0111 count=1101
# clock=1 reset=0 load=0 control=1 input_data=0111 count=1110
# clock=0 reset=0 load=0 control=1 input_data=0111 count=1110
# clock=1 reset=0 load=0 control=1 input_data=0111 count=1111
# clock=0 reset=0 load=0 control=1 input_data=0111 count=1111
# clock=1 reset=0 load=0 control=1 input_data=0111 count=0000
# clock=0 reset=1 load=0 control=1 input_data=1000 count=0000
# clock=1 reset=0 load=0 control=1 input_data=1000 count=0001
# clock=0 reset=0 load=0 control=0 input_data=1000 count=0001
# clock=1 reset=0 load=0 control=0 input_data=1000 count=0000
# clock=0 reset=0 load=0 control=0 input_data=1000 count=0000
# clock=1 reset=0 load=0 control=0 input_data=1000 count=1111
# clock=0 reset=0 load=0 control=0 input_data=1000 count=1111
# clock=1 reset=0 load=0 control=0 input_data=1000 count=1110
# clock=0 reset=0 load=0 control=0 input_data=1000 count=1110
# clock=1 reset=0 load=0 control=0 input_data=1000 count=1101
# clock=0 reset=0 load=0 control=0 input_data=1000 count=1101
# clock=1 reset=0 load=0 control=0 input_data=1000 count=1100
# clock=0 reset=1 load=0 control=0 input_data=1000 count=1100
# clock=1 reset=0 load=0 control=0 input_data=1000 count=1011
# clock=0 reset=0 load=0 control=1 input_data=1000 count=1011
# clock=1 reset=0 load=0 control=1 input_data=1000 count=1100
# clock=0 reset=0 load=0 control=1 input_data=1000 count=1100
# clock=1 reset=0 load=0 control=1 input_data=1000 count=1101
# clock=0 reset=0 load=0 control=1 input_data=1000 count=1101
# clock=1 reset=0 load=0 control=1 input_data=1000 count=1110
# clock=0 reset=0 load=0 control=1 input_data=1000 count=1110
# clock=1 reset=0 load=0 control=1 input_data=1000 count=1111
# clock=0 reset=0 load=0 control=1 input_data=1000 count=1111
# clock=1 reset=0 load=0 control=1 input_data=1000 count=0000
# clock=0 reset=1 load=0 control=1 input_data=1001 count=0000
# clock=1 reset=0 load=0 control=1 input_data=1001 count=0001
# clock=0 reset=0 load=0 control=0 input_data=1001 count=0001
# clock=1 reset=0 load=0 control=0 input_data=1001 count=0000
# clock=0 reset=0 load=0 control=0 input_data=1001 count=0000
# clock=1 reset=0 load=0 control=0 input_data=1001 count=1111
# clock=0 reset=0 load=0 control=0 input_data=1001 count=1111
# clock=1 reset=0 load=0 control=0 input_data=1001 count=1110
# clock=0 reset=0 load=0 control=0 input_data=1001 count=1110
# clock=1 reset=0 load=0 control=0 input_data=1001 count=1101
# clock=0 reset=0 load=0 control=0 input_data=1001 count=1101
# clock=1 reset=0 load=0 control=0 input_data=1001 count=1100
# clock=0 reset=1 load=0 control=0 input_data=1001 count=1100
# clock=1 reset=0 load=0 control=0 input_data=1001 count=1011
# clock=0 reset=0 load=0 control=1 input_data=1001 count=1011
# clock=1 reset=0 load=0 control=1 input_data=1001 count=1100
# clock=0 reset=0 load=0 control=1 input_data=1001 count=1100
# clock=1 reset=0 load=0 control=1 input_data=1001 count=1101
# clock=0 reset=0 load=0 control=1 input_data=1001 count=1101
# clock=1 reset=0 load=0 control=1 input_data=1001 count=1110
# clock=0 reset=0 load=0 control=1 input_data=1001 count=1110
# clock=1 reset=0 load=0 control=1 input_data=1001 count=1111
# clock=0 reset=0 load=0 control=1 input_data=1001 count=1111
# clock=1 reset=0 load=0 control=1 input_data=1001 count=0000
# clock=0 reset=1 load=0 control=1 input_data=1010 count=0000
# clock=1 reset=0 load=0 control=1 input_data=1010 count=0001
# clock=0 reset=0 load=0 control=0 input_data=1010 count=0001
# clock=1 reset=0 load=0 control=0 input_data=1010 count=0000
# clock=0 reset=0 load=0 control=0 input_data=1010 count=0000
# clock=1 reset=0 load=0 control=0 input_data=1010 count=1111
# clock=0 reset=0 load=0 control=0 input_data=1010 count=1111
# clock=1 reset=0 load=0 control=0 input_data=1010 count=1110
# clock=0 reset=0 load=0 control=0 input_data=1010 count=1110
# clock=1 reset=0 load=0 control=0 input_data=1010 count=1101
# clock=0 reset=0 load=0 control=0 input_data=1010 count=1101
# clock=1 reset=0 load=0 control=0 input_data=1010 count=1100
# clock=0 reset=1 load=0 control=0 input_data=1010 count=1100
# clock=1 reset=0 load=0 control=0 input_data=1010 count=1011
# clock=0 reset=0 load=0 control=1 input_data=1010 count=1011
# clock=1 reset=0 load=0 control=1 input_data=1010 count=1100
# clock=0 reset=0 load=0 control=1 input_data=1010 count=1100
# clock=1 reset=0 load=0 control=1 input_data=1010 count=1101
# clock=0 reset=0 load=0 control=1 input_data=1010 count=1101
# clock=1 reset=0 load=0 control=1 input_data=1010 count=1110
# clock=0 reset=0 load=0 control=1 input_data=1010 count=1110
# clock=1 reset=0 load=0 control=1 input_data=1010 count=1111
# clock=0 reset=0 load=0 control=1 input_data=1010 count=1111
# clock=1 reset=0 load=0 control=1 input_data=1010 count=0000
# clock=0 reset=1 load=0 control=1 input_data=1011 count=0000
# clock=1 reset=0 load=0 control=1 input_data=1011 count=0001
# clock=0 reset=0 load=0 control=0 input_data=1011 count=0001
# clock=1 reset=0 load=0 control=0 input_data=1011 count=0000
# clock=0 reset=0 load=0 control=0 input_data=1011 count=0000
# clock=1 reset=0 load=0 control=0 input_data=1011 count=1111
# clock=0 reset=0 load=0 control=0 input_data=1011 count=1111
# clock=1 reset=0 load=0 control=0 input_data=1011 count=1110
# clock=0 reset=0 load=0 control=0 input_data=1011 count=1110
# clock=1 reset=0 load=0 control=0 input_data=1011 count=1101
# clock=0 reset=0 load=0 control=0 input_data=1011 count=1101
# clock=1 reset=0 load=0 control=0 input_data=1011 count=1100
# clock=0 reset=1 load=0 control=0 input_data=1011 count=1100
# clock=1 reset=0 load=0 control=0 input_data=1011 count=1011
# clock=0 reset=0 load=0 control=1 input_data=1011 count=1011
# clock=1 reset=0 load=0 control=1 input_data=1011 count=1100
# clock=0 reset=0 load=0 control=1 input_data=1011 count=1100
# clock=1 reset=0 load=0 control=1 input_data=1011 count=1101
# clock=0 reset=0 load=0 control=1 input_data=1011 count=1101
# clock=1 reset=0 load=0 control=1 input_data=1011 count=1110
# clock=0 reset=0 load=0 control=1 input_data=1011 count=1110
# clock=1 reset=0 load=0 control=1 input_data=1011 count=1111
# clock=0 reset=0 load=0 control=1 input_data=1011 count=1111
# clock=1 reset=0 load=0 control=1 input_data=1011 count=0000
# clock=0 reset=1 load=0 control=1 input_data=1100 count=0000
# clock=1 reset=0 load=0 control=1 input_data=1100 count=0001
# clock=0 reset=0 load=0 control=0 input_data=1100 count=0001
# clock=1 reset=0 load=0 control=0 input_data=1100 count=0000
# clock=0 reset=0 load=0 control=0 input_data=1100 count=0000
# clock=1 reset=0 load=0 control=0 input_data=1100 count=1111
# clock=0 reset=0 load=0 control=0 input_data=1100 count=1111
# clock=1 reset=0 load=0 control=0 input_data=1100 count=1110
# clock=0 reset=0 load=0 control=0 input_data=1100 count=1110
# clock=1 reset=0 load=0 control=0 input_data=1100 count=1101
# clock=0 reset=0 load=0 control=0 input_data=1100 count=1101
# clock=1 reset=0 load=0 control=0 input_data=1100 count=1100
# clock=0 reset=1 load=0 control=0 input_data=1100 count=1100
# clock=1 reset=0 load=0 control=0 input_data=1100 count=1011
# clock=0 reset=0 load=0 control=1 input_data=1100 count=1011
# clock=1 reset=0 load=0 control=1 input_data=1100 count=1100
# clock=0 reset=0 load=0 control=1 input_data=1100 count=1100
# clock=1 reset=0 load=0 control=1 input_data=1100 count=1101
# clock=0 reset=0 load=0 control=1 input_data=1100 count=1101
# clock=1 reset=0 load=0 control=1 input_data=1100 count=1110
# clock=0 reset=0 load=0 control=1 input_data=1100 count=1110
# clock=1 reset=0 load=0 control=1 input_data=1100 count=1111
# clock=0 reset=0 load=0 control=1 input_data=1100 count=1111
# clock=1 reset=0 load=0 control=1 input_data=1100 count=0000
# clock=0 reset=1 load=0 control=1 input_data=1101 count=0000
# clock=1 reset=0 load=0 control=1 input_data=1101 count=0001
# clock=0 reset=0 load=0 control=0 input_data=1101 count=0001
# clock=1 reset=0 load=0 control=0 input_data=1101 count=0000
# clock=0 reset=0 load=0 control=0 input_data=1101 count=0000
# clock=1 reset=0 load=0 control=0 input_data=1101 count=1111
# clock=0 reset=0 load=0 control=0 input_data=1101 count=1111
# clock=1 reset=0 load=0 control=0 input_data=1101 count=1110
# clock=0 reset=0 load=0 control=0 input_data=1101 count=1110
# clock=1 reset=0 load=0 control=0 input_data=1101 count=1101
# clock=0 reset=0 load=0 control=0 input_data=1101 count=1101
# clock=1 reset=0 load=0 control=0 input_data=1101 count=1100
# clock=0 reset=1 load=0 control=0 input_data=1101 count=1100
# clock=1 reset=0 load=0 control=0 input_data=1101 count=1011
# clock=0 reset=0 load=0 control=1 input_data=1101 count=1011
# clock=1 reset=0 load=0 control=1 input_data=1101 count=1100
# clock=0 reset=0 load=0 control=1 input_data=1101 count=1100
# clock=1 reset=0 load=0 control=1 input_data=1101 count=1101
# clock=0 reset=0 load=0 control=1 input_data=1101 count=1101
# clock=1 reset=0 load=0 control=1 input_data=1101 count=1110
# clock=0 reset=0 load=0 control=1 input_data=1101 count=1110
# clock=1 reset=0 load=0 control=1 input_data=1101 count=1111
# clock=0 reset=0 load=0 control=1 input_data=1101 count=1111
# clock=1 reset=0 load=0 control=1 input_data=1101 count=0000
# clock=0 reset=1 load=0 control=1 input_data=1110 count=0000
# clock=1 reset=0 load=0 control=1 input_data=1110 count=0001
# clock=0 reset=0 load=0 control=0 input_data=1110 count=0001
# clock=1 reset=0 load=0 control=0 input_data=1110 count=0000
# clock=0 reset=0 load=0 control=0 input_data=1110 count=0000
# clock=1 reset=0 load=0 control=0 input_data=1110 count=1111
# clock=0 reset=0 load=0 control=0 input_data=1110 count=1111
# clock=1 reset=0 load=0 control=0 input_data=1110 count=1110
# clock=0 reset=0 load=0 control=0 input_data=1110 count=1110
# clock=1 reset=0 load=0 control=0 input_data=1110 count=1101
# clock=0 reset=0 load=0 control=0 input_data=1110 count=1101
# clock=1 reset=0 load=0 control=0 input_data=1110 count=1100
# clock=0 reset=1 load=0 control=0 input_data=1110 count=1100
# clock=1 reset=0 load=0 control=0 input_data=1110 count=1011
# clock=0 reset=0 load=0 control=1 input_data=1110 count=1011
# clock=1 reset=0 load=0 control=1 input_data=1110 count=1100
# clock=0 reset=0 load=0 control=1 input_data=1110 count=1100
# clock=1 reset=0 load=0 control=1 input_data=1110 count=1101
# clock=0 reset=0 load=0 control=1 input_data=1110 count=1101
# clock=1 reset=0 load=0 control=1 input_data=1110 count=1110
# clock=0 reset=0 load=0 control=1 input_data=1110 count=1110
# clock=1 reset=0 load=0 control=1 input_data=1110 count=1111
# clock=0 reset=0 load=0 control=1 input_data=1110 count=1111
# clock=1 reset=0 load=0 control=1 input_data=1110 count=0000
# clock=0 reset=1 load=0 control=1 input_data=1111 count=0000
# clock=1 reset=0 load=0 control=1 input_data=1111 count=0001
# clock=0 reset=0 load=0 control=0 input_data=1111 count=0001
# clock=1 reset=0 load=0 control=0 input_data=1111 count=0000
# clock=0 reset=0 load=0 control=0 input_data=1111 count=0000
# clock=1 reset=0 load=0 control=0 input_data=1111 count=1111
# clock=0 reset=0 load=0 control=0 input_data=1111 count=1111
# clock=1 reset=0 load=0 control=0 input_data=1111 count=1110
# clock=0 reset=0 load=0 control=0 input_data=1111 count=1110
# clock=1 reset=0 load=0 control=0 input_data=1111 count=1101
# clock=0 reset=0 load=0 control=0 input_data=1111 count=1101
# clock=1 reset=0 load=0 control=0 input_data=1111 count=1100
# clock=0 reset=1 load=0 control=0 input_data=1111 count=1100
# clock=1 reset=0 load=0 control=0 input_data=1111 count=1011
# clock=0 reset=0 load=0 control=1 input_data=1111 count=1011
# clock=1 reset=0 load=0 control=1 input_data=1111 count=1100
# clock=0 reset=0 load=0 control=1 input_data=1111 count=1100
# clock=1 reset=0 load=0 control=1 input_data=1111 count=1101
# clock=0 reset=0 load=0 control=1 input_data=1111 count=1101
# clock=1 reset=0 load=0 control=1 input_data=1111 count=1110
# clock=0 reset=0 load=0 control=1 input_data=1111 count=1110
# clock=1 reset=0 load=0 control=1 input_data=1111 count=1111
# clock=0 reset=0 load=0 control=1 input_data=1111 count=1111
# clock=1 reset=0 load=0 control=1 input_data=1111 count=0000
# clock=0 reset=0 load=0 control=1 input_data=1111 count=0000
# clock=1 reset=0 load=0 control=1 input_data=1111 count=0001
# clock=0 reset=0 load=0 control=1 input_data=1111 count=0001
# clock=1 reset=0 load=0 control=1 input_data=1111 count=0010
# clock=0 reset=0 load=0 control=1 input_data=1111 count=0010
# clock=1 reset=0 load=0 control=1 input_data=1111 count=0011
# clock=0 reset=0 load=0 control=1 input_data=1111 count=0011
# clock=1 reset=0 load=0 control=1 input_data=1111 count=0100
# clock=0 reset=0 load=1 control=1 input_data=1111 count=0100
# clock=1 reset=0 load=1 control=1 input_data=1111 count=0000
# clock=0 reset=0 load=0 control=1 input_data=1111 count=0000
# clock=1 reset=0 load=0 control=1 input_data=1111 count=0001
# clock=0 reset=0 load=0 control=1 input_data=1111 count=0001
# clock=1 reset=0 load=0 control=1 input_data=1111 count=0010
# clock=0 reset=0 load=0 control=1 input_data=1111 count=0010
# clock=1 reset=0 load=0 control=1 input_data=1111 count=0011
# clock=0 reset=0 load=0 control=1 input_data=1111 count=0011
# clock=1 reset=0 load=0 control=1 input_data=1111 count=0100
# clock=0 reset=0 load=0 control=1 input_data=1111 count=0100
# clock=1 reset=0 load=0 control=1 input_data=1111 count=0101
# clock=0 reset=0 load=0 control=1 input_data=1111 count=0101
# clock=1 reset=0 load=0 control=1 input_data=1111 count=0110
# clock=0 reset=0 load=0 control=1 input_data=1111 count=0110
# clock=1 reset=0 load=0 control=1 input_data=1111 count=0111
# clock=0 reset=0 load=0 control=1 input_data=1111 count=0111
# clock=1 reset=0 load=0 control=1 input_data=1111 count=1000
# clock=0 reset=0 load=0 control=1 input_data=1111 count=1000
# clock=1 reset=0 load=0 control=1 input_data=1111 count=1001
# clock=0 reset=0 load=0 control=1 input_data=1111 count=1001
# clock=1 reset=0 load=0 control=1 input_data=1111 count=1010
# clock=0 reset=0 load=0 control=1 input_data=1111 count=1010
# clock=1 reset=0 load=0 control=1 input_data=1111 count=1011
# clock=0 reset=0 load=0 control=1 input_data=1111 count=1011
# clock=1 reset=0 load=0 control=1 input_data=1111 count=1100
# ** Note: $finish    : F:/Maven_Training/Verilog/Verilog_labs/lab4/counter_updown_4bit_loadable/tb/tb_counter_updown_loadable.v(60)
#    Time: 2130 ps  Iteration: 0  Instance: /tb_counter_updown_4bit_loadable
# 1
# Break in Module tb_counter_updown_4bit_loadable at F:/Maven_Training/Verilog/Verilog_labs/lab4/counter_updown_4bit_loadable/tb/tb_counter_updown_loadable.v line 60
quit -sim
# End time: 23:12:25 on Oct 16,2020, Elapsed time: 0:02:33
# Errors: 0, Warnings: 2
